{
  "name":"InfluxDB",
  "type":"influxdb",
  "access":"proxy",
  "url":"http://influxdb:8086",
  "isDefault":true,
  "jsonData":
  {
      "version":"Flux",
      "httpMode":"POST",
      "httpHeaderName1":"Authorization",
      "defaultBucket":"telegraf_bucket",
      "organization":"me"
  },
  "version":1,
  "readOnly":false,
  "secureJsonData":
  {
      "httpHeaderValue1":"Token I2b2X5uv6zD_nX9PFyiGHtx9XAka8AxOoHQB_PSBscX472t-UIzNSkpIf82JMt7jdgb_KAV-wUnDrDVhlCfHSA==",
      "token":"I2b2X5uv6zD_nX9PFyiGHtx9XAka8AxOoHQB_PSBscX472t-UIzNSkpIf82JMt7jdgb_KAV-wUnDrDVhlCfHSA=="
  }
}
