________________________________________
________________________________________
________________________________________
________________________________________
________________________________________
_________8____88__88888_____8___________
_________8____88_88___88___88___________
_________8____88_88_______8_8___________
_________8____88__8888______8___________
_________8____88____888_____8___________
_________8____88_______8____8___________
_________8____8__88____8____8___________
_________888888___88888_____8___________
___________88_______88__________________
________________________________________
________________________________________
________________________________________
________________________________________
________________________________________
